{       "startval": 
[
	
	{"stage":"dev", "services":[{"servicename":"proxy-web", "update":"2.0.1", "current":"2.0.0", "servers":"web01"},{"servicename":"oper", "update":"4.0.1", "current":"3.0.0", "servers":"web02"}]},
	{"stage":"test", "services":[{"servicename":"oper", "update":"4.0.1", "current":"3.0.0", "servers":"web02"}]}
	
	]

 
}
